<?xml version="1.0" encoding="utf-8"?>
<!-- Generator: Adobe Illustrator 16.0.4, SVG Export Plug-In . SVG Version: 6.00 Build 0)  -->
<!DOCTYPE svg PUBLIC "-//W3C//DTD SVG 1.1//EN" "http://www.w3.org/Graphics/SVG/1.1/DTD/svg11.dtd">
<svg version="1.1" xmlns="http://www.w3.org/2000/svg" xmlns:xlink="http://www.w3.org/1999/xlink" x="0px" y="0px"
	 width="264.41px" height="96.83px" viewBox="0 0 264.41 96.83" enable-background="new 0 0 264.41 96.83" xml:space="preserve">
<g id="Artwork">
</g>
<g id="Option">
	<path fill="none" stroke="#BBBDBF" stroke-width="3.0006" stroke-miterlimit="10" d="M255.374,9.414"/>
	<path fill="#75256D" stroke="#29ABE2" stroke-width="2.0004" stroke-miterlimit="10" d="M165.241,53.309"/>
	<path fill="#75256D" d="M18.453,17.874h8.051c7.735,0,13.655,5.683,13.655,13.103c0,7.498-5.92,13.181-13.694,13.181h-8.012V17.874
		z M25.518,39.738c5.645,0,9.354-3.474,9.354-8.723s-3.709-8.682-9.354-8.682h-1.934v17.404H25.518z"/>
	<path fill="#75256D" d="M49.99,44.157h-5.092V17.874h5.092V44.157z"/>
	<path fill="#75256D" d="M68.895,23.833c-1.381-1.499-2.604-2.091-4.262-2.091c-2.053,0-3.71,1.262-3.71,2.88
		c0,1.421,0.986,2.249,3.987,3.315c2.998,1.065,4.025,1.578,5.248,2.684c1.658,1.422,2.368,3.078,2.368,5.446
		c0,5.21-3.749,8.683-9.274,8.683c-3.671,0-6.434-1.578-8.723-5.012l3.079-3.197c1.224,2.447,3.157,3.789,5.684,3.789
		c2.209,0,3.946-1.658,3.946-3.75c0-2.052-0.869-2.723-5.131-4.262c-4.656-1.658-6.473-3.67-6.473-7.184
		c0-4.34,3.552-7.695,8.13-7.695c2.843,0,5.842,1.105,7.815,2.881L68.895,23.833z"/>
	<path fill="#75256D" d="M96.052,24.938c-1.854-1.814-3.946-2.724-6.434-2.724c-4.894,0-8.604,3.868-8.604,8.92
		c0,5.013,3.71,8.802,8.604,8.802c2.407,0,4.538-0.908,6.434-2.724v6.038c-2.763,1.105-4.38,1.5-6.513,1.5
		c-7.696,0-13.813-5.998-13.813-13.576c0-7.697,6.157-13.814,13.933-13.814c2.289,0,4.104,0.435,6.394,1.539V24.938z"/>
	<path fill="#75256D" d="M112.926,17.242c7.894,0,14.129,6.078,14.129,13.854c0,7.774-6.235,13.812-14.208,13.812
		c-7.972,0-14.129-6-14.129-13.774C98.718,23.32,104.954,17.242,112.926,17.242z M112.887,39.896c4.854,0,8.801-3.946,8.801-8.841
		c0-4.854-3.947-8.801-8.841-8.801c-4.815,0-8.801,3.946-8.761,8.842C104.086,35.949,108.031,39.896,112.887,39.896z"/>
	<path fill="#75256D" d="M139.846,35.555l7.105-17.681h5.564l-11.366,26.915h-2.724l-11.209-26.915h5.565L139.846,35.555z"/>
	<path fill="#75256D" d="M160.729,22.334v5.801h9.037v4.42h-9.037v7.144h9.432v4.459h-14.562V17.874h14.562v4.46H160.729z"/>
	<path fill="#75256D" d="M195.066,44.157h-6.314l-7.104-10.577h-0.632v10.577h-5.132V17.874h7.618c2.921,0,5.091,0.631,6.63,1.894
		c1.658,1.381,2.645,3.631,2.645,5.96c0,2.604-1.145,4.973-3.078,6.235c-0.868,0.592-1.421,0.828-2.881,1.105L195.066,44.157z
		 M182.477,29.95c3.276,0,5.17-1.421,5.17-3.985c0-2.527-1.814-3.948-5.091-3.948h-1.578v7.934H182.477z"/>
	<g>
		<path fill="#62AC45" d="M128.338,87.348c-0.174-0.379-0.552-0.729-1.01-0.729c-0.441,0-0.914,0.334-0.914,0.79
			c0,0.651,0.852,0.895,1.719,1.243c0.867,0.35,1.719,0.851,1.719,2.049c0,1.352-1.135,2.322-2.508,2.322
			c-1.246,0-2.224-0.684-2.617-1.807l1.119-0.455c0.316,0.668,0.679,1.139,1.514,1.139c0.679,0,1.199-0.44,1.199-1.094
			c0-1.592-3.343-1.047-3.343-3.292c0-1.198,1.009-2.018,2.207-2.018c0.852,0,1.64,0.576,1.972,1.32L128.338,87.348z"/>
		<path fill="#62AC45" d="M137.139,87.818h-0.031c-0.582-0.713-1.309-1.199-2.302-1.199c-1.53,0-2.618,1.214-2.618,2.641
			c0,1.411,1.01,2.641,2.555,2.641c1.057,0,1.798-0.456,2.414-1.229h0.031v1.623c-0.727,0.471-1.467,0.729-2.35,0.729
			c-2.24,0-3.943-1.609-3.943-3.764c0-2.124,1.781-3.763,3.959-3.763c0.803,0,1.624,0.258,2.285,0.713V87.818z"/>
		<path fill="#62AC45" d="M140.912,83.008c0,0.486-0.41,0.865-0.899,0.865s-0.898-0.379-0.898-0.865c0-0.47,0.409-0.864,0.898-0.864
			S140.912,82.538,140.912,83.008z M140.644,92.825h-1.262v-7.132h1.262V92.825z"/>
		<path fill="#62AC45" d="M143.909,89.519c0.017,1.319,0.993,2.382,2.429,2.382c1.072,0,1.767-0.623,2.256-1.473l1.071,0.592
			c-0.71,1.274-1.907,2.004-3.421,2.004c-2.209,0-3.628-1.625-3.628-3.672c0-2.109,1.277-3.854,3.595-3.854
			c2.383,0,3.645,1.896,3.518,4.021H143.909z M148.404,88.486c-0.174-1.033-1.072-1.867-2.176-1.867
			c-1.089,0-2.098,0.834-2.256,1.867H148.404z"/>
		<path fill="#62AC45" d="M152.728,86.56h0.032c0.521-0.684,1.198-1.062,2.113-1.062c2.049,0,2.523,1.427,2.523,3.095v4.233h-1.262
			v-4.021c0-1.152-0.096-2.185-1.562-2.185c-1.734,0-1.845,1.549-1.845,2.822v3.384h-1.262v-7.132h1.262V86.56z"/>
		<path fill="#62AC45" d="M165.3,87.818h-0.031c-0.583-0.713-1.309-1.199-2.302-1.199c-1.529,0-2.618,1.214-2.618,2.641
			c0,1.411,1.009,2.641,2.554,2.641c1.058,0,1.799-0.456,2.414-1.229h0.03v1.623c-0.725,0.471-1.466,0.729-2.349,0.729
			c-2.24,0-3.943-1.609-3.943-3.764c0-2.124,1.781-3.763,3.959-3.763c0.804,0,1.624,0.258,2.286,0.713V87.818z"/>
		<path fill="#62AC45" d="M167.938,89.519c0.016,1.319,0.992,2.382,2.428,2.382c1.072,0,1.766-0.623,2.255-1.473l1.073,0.592
			c-0.709,1.274-1.908,2.004-3.423,2.004c-2.208,0-3.627-1.625-3.627-3.672c0-2.109,1.277-3.854,3.595-3.854
			c2.382,0,3.644,1.896,3.518,4.021H167.938z M172.431,88.486c-0.173-1.033-1.071-1.867-2.175-1.867
			c-1.089,0-2.098,0.834-2.256,1.867H172.431z"/>
		<path fill="#62AC45" d="M177.607,92.158c0,0.47-0.396,0.865-0.884,0.865c-0.489,0-0.883-0.396-0.883-0.865
			c0-0.455,0.394-0.835,0.883-0.835C177.212,91.323,177.607,91.703,177.607,92.158z"/>
		<path fill="#62AC45" d="M184.58,86.56h0.031c0.521-0.684,1.199-1.062,2.113-1.062c2.051,0,2.523,1.427,2.523,3.095v4.233h-1.262
			v-4.021c0-1.152-0.095-2.185-1.561-2.185c-1.734,0-1.846,1.549-1.846,2.822v3.384h-1.262v-7.132h1.262V86.56z"/>
		<path fill="#62AC45" d="M198.414,92.825h-1.262V91.84h-0.031c-0.646,0.788-1.514,1.184-2.555,1.184
			c-2.177,0-3.549-1.775-3.549-3.749c0-2.032,1.341-3.777,3.564-3.777c1.01,0,1.924,0.455,2.539,1.214h0.031v-1.018h1.262V92.825z
			 M192.311,89.185c0,1.396,0.853,2.716,2.43,2.716c1.624,0,2.476-1.26,2.476-2.701c0-1.426-0.931-2.58-2.491-2.58
			C193.258,86.619,192.311,87.849,192.311,89.185z"/>
		<path fill="#62AC45" d="M202.076,92.825h-1.262v-6.008h-0.772v-1.124h0.772V83.13h1.262v2.563h1.324v1.124h-1.324V92.825z"/>
		<path fill="#62AC45" d="M205.705,89.67c0,1.198,0.143,2.23,1.672,2.23s1.672-1.032,1.672-2.23v-3.977h1.262v4.113
			c0,1.896-0.742,3.217-2.934,3.217c-2.192,0-2.934-1.32-2.934-3.217v-4.113h1.262V89.67z"/>
		<path fill="#62AC45" d="M213.814,86.469h0.031c0.441-0.562,0.82-0.972,1.641-0.972c0.426,0,0.772,0.137,1.135,0.333l-0.599,1.109
			c-0.253-0.168-0.427-0.32-0.757-0.32c-1.389,0-1.451,1.715-1.451,2.641v3.565h-1.262v-7.132h1.262V86.469z"/>
		<path fill="#62AC45" d="M218.531,89.519c0.016,1.319,0.993,2.382,2.429,2.382c1.073,0,1.767-0.623,2.255-1.473l1.072,0.592
			c-0.709,1.274-1.908,2.004-3.422,2.004c-2.207,0-3.627-1.625-3.627-3.672c0-2.109,1.277-3.854,3.596-3.854
			c2.381,0,3.643,1.896,3.517,4.021H218.531z M223.025,88.486c-0.174-1.033-1.072-1.867-2.176-1.867
			c-1.088,0-2.098,0.834-2.256,1.867H223.025z"/>
		<path fill="#62AC45" d="M228.201,92.158c0,0.47-0.395,0.865-0.883,0.865c-0.489,0-0.883-0.396-0.883-0.865
			c0-0.455,0.394-0.835,0.883-0.835C227.807,91.323,228.201,91.703,228.201,92.158z"/>
		<path fill="#62AC45" d="M235.111,86.711h0.033c0.613-0.789,1.529-1.214,2.554-1.214c2.177,0,3.548,1.806,3.548,3.777
			c0,2.033-1.34,3.749-3.563,3.749c-1.009,0-1.94-0.426-2.538-1.199h-0.033v5.006h-1.261V85.693h1.261V86.711z M235.049,89.185
			c0,1.396,0.852,2.716,2.429,2.716c1.624,0,2.476-1.26,2.476-2.701c0-1.426-0.93-2.58-2.491-2.58
			C235.995,86.619,235.049,87.849,235.049,89.185z"/>
		<path fill="#62AC45" d="M244.246,92.825h-1.262V80.309h1.262V92.825z"/>
		<path fill="#62AC45" d="M253.363,92.825h-1.262V91.84h-0.031c-0.647,0.788-1.514,1.184-2.555,1.184
			c-2.177,0-3.549-1.775-3.549-3.749c0-2.032,1.34-3.777,3.563-3.777c1.009,0,1.925,0.455,2.54,1.214h0.031v-1.018h1.262V92.825z
			 M247.26,89.185c0,1.396,0.852,2.716,2.429,2.716c1.624,0,2.476-1.26,2.476-2.701c0-1.426-0.93-2.58-2.491-2.58
			C248.206,86.619,247.26,87.849,247.26,89.185z"/>
		<path fill="#62AC45" d="M254.47,85.693h1.467l2.618,5.113l2.396-5.113h1.436l-5.473,11.137h-1.436l2.398-4.672L254.47,85.693z"/>
		<path fill="#62AC45" d="M264.41,92.158c0,0.47-0.395,0.865-0.883,0.865c-0.489,0-0.883-0.396-0.883-0.865
			c0-0.455,0.394-0.835,0.883-0.835C264.016,91.323,264.41,91.703,264.41,92.158z"/>
	</g>
	<g>
		
			<rect x="218.225" y="25.275" transform="matrix(0.4048 0.9144 -0.9144 0.4048 164.7926 -199.7564)" fill="#62AC45" width="35.211" height="2.85"/>
		
			<rect x="234.405" y="9.095" transform="matrix(0.4049 0.9143 -0.9143 0.4049 164.7486 -199.7422)" fill="#62AC45" width="2.851" height="35.21"/>
		
			<rect x="218.225" y="25.275" transform="matrix(0.9328 0.3604 -0.3604 0.9328 25.4711 -83.1991)" fill="#62AC45" width="35.212" height="2.85"/>
		
			<rect x="234.405" y="9.094" transform="matrix(0.9328 0.3605 -0.3605 0.9328 25.4821 -83.2201)" fill="#62AC45" width="2.85" height="35.212"/>
	</g>
	<g>
		
			<rect x="-0.423" y="9.797" transform="matrix(0.4048 0.9144 -0.9144 0.4048 16.1484 -3.4136)" fill="#CF202A" width="22.239" height="1.8"/>
		
			<rect x="9.796" y="-0.422" transform="matrix(0.4046 0.9145 -0.9145 0.4046 16.1507 -3.4127)" fill="#CF202A" width="1.8" height="22.239"/>
		
			<rect x="-0.423" y="9.797" transform="matrix(0.9328 0.3604 -0.3604 0.9328 4.574 -3.136)" fill="#CF202A" width="22.239" height="1.8"/>
		
			<rect x="9.796" y="-0.423" transform="matrix(0.9328 0.3603 -0.3603 0.9328 4.5728 -3.1354)" fill="#CF202A" width="1.8" height="22.239"/>
	</g>
	<path opacity="0.44" fill="#FFFFFF" stroke="#E55D29" stroke-width="3.0006" stroke-miterlimit="10" d="M160.145,81.277"/>
	<g>
		<g>
			<polygon fill="#3B9FBD" points="108.713,95.812 107.777,73.892 109.814,73.871 110.711,95.729 			"/>
		</g>
		
			<rect x="108.244" y="73.839" transform="matrix(0.043 0.9991 -0.9991 0.043 189.281 -27.978)" fill="#3B9FBD" width="2" height="21.942"/>
		
			<rect x="98.273" y="83.81" transform="matrix(0.7366 0.6763 -0.6763 0.7366 86.1351 -51.5458)" fill="#3B9FBD" width="21.942" height="2"/>
		<g>
			<polygon fill="#3B9FBD" points="102.561,93.567 101.088,92.215 115.227,76.816 118.056,76.766 			"/>
		</g>
		<path opacity="0.44" fill="#FFFFFF" stroke="#E55D29" stroke-width="3.0006" stroke-miterlimit="10" d="M93.475,73.835"/>
	</g>
	<g>
		<path fill="#75256D" d="M193.854,18.096h6.02l5.666,9.089l5.547-9.089h6.1L207.979,32.3v12h-5.115v-12L193.854,18.096z"/>
	</g>
	<g>
		<path fill="#75256D" d="M163.844,48.562v15.135c0,2.075,0,4.22-1.102,5.634c-1.043,1.352-3.228,2.061-4.846,2.061
			c-1.619,0-3.803-0.709-4.848-2.064c-1.1-1.41-1.1-3.555-1.1-5.63V48.562h-2.838v15.579c0,2.455,0,4.773,1.782,6.975
			c1.661,1.89,4.278,3.018,7.003,3.018c2.723,0,5.342-1.128,7.02-3.039c1.766-2.18,1.766-4.498,1.766-6.953V48.562H163.844z"/>
		<path fill="#75256D" d="M184.394,61.178l-4.593-2.393l-0.188-0.088c-1.848-0.876-3.758-1.782-3.758-3.795
			c0-2.195,1.693-3.916,3.852-3.916c1.828,0,3.236,0.823,4.303,2.518l0.397,0.633l2.079-1.711l-0.266-0.479
			c-1.246-2.25-3.766-3.704-6.418-3.704c-3.932,0-6.784,2.827-6.784,6.722c0,2.069,0.938,3.698,2.825,4.867l4.337,2.295l0.434,0.211
			c1.887,0.916,4.026,1.955,4.026,4.059c0,2.707-2.404,4.994-5.25,4.994c-2.98,0-4.456-2.124-5.169-3.905l-0.255-0.638l-2.512,1.137
			l0.206,0.571c1.241,3.44,4.179,5.577,7.667,5.577c4.418,0,8.149-3.484,8.149-7.609C187.478,64.202,186.512,62.513,184.394,61.178z
			"/>
		<polygon fill="#75256D" points="206.018,51.303 206.018,48.562 193.273,48.562 193.273,73.816 206.018,73.816 206.018,71.072 
			196.111,71.072 196.111,61.433 205.766,61.433 205.766,58.689 196.111,58.689 196.111,51.303 		"/>
		<path fill="#75256D" d="M226.422,48.562v15.135c0,2.075,0,4.22-1.102,5.634c-1.043,1.352-3.228,2.061-4.847,2.061
			c-1.618,0-3.802-0.709-4.849-2.064c-1.099-1.41-1.099-3.555-1.099-5.63V48.562h-2.839v15.579c0,2.455,0,4.773,1.783,6.975
			c1.662,1.89,4.279,3.018,7.003,3.018c2.725,0,5.343-1.128,7.021-3.038c1.765-2.181,1.765-4.499,1.765-6.954V48.562H226.422z"/>
		<polygon fill="#75256D" points="142.6,73.816 145.403,73.816 140.123,48.424 138.742,48.424 130.625,68.455 122.538,48.424 
			121.158,48.424 115.877,73.816 118.682,73.816 122.467,55.501 129.9,73.916 131.348,73.916 138.812,55.496 		"/>
		<polygon fill="#75256D" points="259.709,73.816 262.514,73.816 257.232,48.424 255.853,48.424 247.735,68.455 239.648,48.424 
			238.27,48.424 232.988,73.816 235.791,73.816 239.576,55.501 247.012,73.916 248.457,73.916 255.923,55.496 		"/>
	</g>
</g>
<g id="Layer_1">
</g>
</svg>
