<?xml version="1.0" encoding="utf-8"?>
<!-- Generator: Adobe Illustrator 16.0.4, SVG Export Plug-In . SVG Version: 6.00 Build 0)  -->
<!DOCTYPE svg PUBLIC "-//W3C//DTD SVG 1.1//EN" "http://www.w3.org/Graphics/SVG/1.1/DTD/svg11.dtd">
<svg version="1.1" id="Layer_1" xmlns="http://www.w3.org/2000/svg" xmlns:xlink="http://www.w3.org/1999/xlink" x="0px" y="0px"
	 width="218.437px" height="70.718px" viewBox="0 0 218.437 70.718" enable-background="new 0 0 218.437 70.718"
	 xml:space="preserve">
<rect fill="none" width="218.437" height="70.718"/>
<g>
	<path opacity="0.4" fill="none" stroke="#FFFFFF" stroke-width="0.8861" stroke-miterlimit="10" enable-background="new    " d="
		M-19.027,152.665c0,12.245-9.928,22.175-22.173,22.175c-12.246,0-22.176-9.93-22.176-22.175c0-12.243,9.93-22.176,22.176-22.176
		C-28.955,130.488-19.027,140.419-19.027,152.665z"/>
	
		<circle opacity="0.4" fill="none" stroke="#FFFFFF" stroke-width="0.8861" stroke-miterlimit="10" enable-background="new    " cx="49.14" cy="125.55" r="20.286"/>
	
		<circle opacity="0.4" fill="none" stroke="#FFFFFF" stroke-width="0.8861" stroke-miterlimit="10" enable-background="new    " cx="-65.473" cy="120.577" r="32.088"/>
	
		<circle opacity="0.4" fill="none" stroke="#FFFFFF" stroke-width="0.8861" stroke-miterlimit="10" enable-background="new    " cx="50.632" cy="-24.542" r="36.941"/>
	
		<circle opacity="0.4" fill="none" stroke="#FFFFFF" stroke-width="0.8861" stroke-miterlimit="10" enable-background="new    " cx="-6.908" cy="26.753" r="32.702"/>
	<path opacity="0.4" fill="none" stroke="#FFFFFF" stroke-width="0.8861" stroke-miterlimit="10" enable-background="new    " d="
		M28.609-120.822c41.831,0,75.745,33.911,75.745,75.744c0,41.832-33.914,75.743-75.745,75.743c-41.83,0-75.742-33.911-75.742-75.743
		C-47.133-86.911-13.221-120.822,28.609-120.822z"/>
	<path opacity="0.4" fill="none" stroke="#FFFFFF" stroke-width="0.8861" stroke-miterlimit="10" enable-background="new    " d="
		M73.571,20.316c0,8.536-6.922,15.458-15.458,15.458c-8.537,0-15.46-6.923-15.46-15.458c0-8.536,6.923-15.461,15.46-15.461
		C66.647,4.855,73.571,11.78,73.571,20.316z"/>
	<path opacity="0.4" fill="none" stroke="#FFFFFF" stroke-width="0.8861" stroke-miterlimit="10" enable-background="new    " d="
		M79.592,101.315c0,8.41-6.814,15.227-15.228,15.227c-8.41,0-15.227-6.815-15.227-15.227c0-8.41,6.814-15.228,15.227-15.228
		C72.777,86.09,79.592,92.905,79.592,101.315z"/>
	
		<circle opacity="0.4" fill="none" stroke="#FFFFFF" stroke-width="0.8861" stroke-miterlimit="10" enable-background="new    " cx="135.666" cy="120.577" r="32.088"/>
	
		<circle opacity="0.4" fill="none" stroke="#FFFFFF" stroke-width="0.8861" stroke-miterlimit="10" enable-background="new    " cx="251.771" cy="-24.542" r="36.941"/>
	
		<circle opacity="0.4" fill="none" stroke="#FFFFFF" stroke-width="0.8861" stroke-miterlimit="10" enable-background="new    " cx="194.23" cy="26.753" r="32.702"/>
	
		<circle opacity="0.4" fill="none" stroke="#FFFFFF" stroke-width="0.8861" stroke-miterlimit="10" enable-background="new    " cx="229.748" cy="-45.079" r="75.743"/>
	<path opacity="0.4" fill="none" stroke="#FFFFFF" stroke-width="0.8861" stroke-miterlimit="10" enable-background="new    " d="
		M274.711,20.316c0,8.536-6.923,15.458-15.46,15.458s-15.459-6.923-15.459-15.458c0-8.536,6.923-15.461,15.459-15.461
		C267.786,4.855,274.711,11.78,274.711,20.316z"/>
	<path opacity="0.4" fill="none" stroke="#FFFFFF" stroke-width="0.8861" stroke-miterlimit="10" enable-background="new    " d="
		M280.73,101.315c0,8.41-6.812,15.227-15.228,15.227c-8.41,0-15.226-6.815-15.226-15.227c0-8.41,6.814-15.228,15.226-15.228
		C273.917,86.09,280.73,92.905,280.73,101.315z"/>
	<g>
		
			<circle opacity="0.4" fill="none" stroke="#FFFFFF" stroke-width="0.8861" stroke-miterlimit="10" enable-background="new    " cx="20.45" cy="88.199" r="46.062"/>
		<path opacity="0.4" fill="none" stroke="#FFFFFF" stroke-width="0.8861" stroke-miterlimit="10" enable-background="new    " d="
			M163.256,125.55c0,47.207-38.275,85.478-85.48,85.478c-47.212,0-85.48-38.271-85.48-85.478s38.269-85.48,85.48-85.48
			C124.98,40.07,163.256,78.341,163.256,125.55z"/>
		
			<circle opacity="0.4" fill="none" stroke="#FFFFFF" stroke-width="0.8861" stroke-miterlimit="10" enable-background="new    " cx="-22.759" cy="77.979" r="36.451"/>
		
			<circle opacity="0.4" fill="none" stroke="#FFFFFF" stroke-width="0.8861" stroke-miterlimit="10" enable-background="new    " cx="-117.723" cy="80.635" r="23.337"/>
		
			<circle opacity="0.4" fill="none" stroke="#FFFFFF" stroke-width="0.8861" stroke-miterlimit="10" enable-background="new    " cx="-78.434" cy="51.592" r="19.126"/>
		
			<circle opacity="0.4" fill="none" stroke="#FFFFFF" stroke-width="0.8861" stroke-miterlimit="10" enable-background="new    " cx="-84.607" cy="12.397" r="65.581"/>
		
			<circle opacity="0.4" fill="none" stroke="#FFFFFF" stroke-width="0.8861" stroke-miterlimit="10" enable-background="new    " cx="221.587" cy="88.199" r="46.062"/>
		<path opacity="0.4" fill="none" stroke="#FFFFFF" stroke-width="0.8861" stroke-miterlimit="10" enable-background="new    " d="
			M364.396,125.55c0,47.207-38.277,85.478-85.482,85.478c-47.211,0-85.48-38.271-85.48-85.478s38.27-85.48,85.48-85.48
			C326.118,40.07,364.396,78.341,364.396,125.55z"/>
		
			<circle opacity="0.4" fill="none" stroke="#FFFFFF" stroke-width="0.8861" stroke-miterlimit="10" enable-background="new    " cx="178.381" cy="77.979" r="36.451"/>
		
			<circle opacity="0.4" fill="none" stroke="#FFFFFF" stroke-width="0.8861" stroke-miterlimit="10" enable-background="new    " cx="83.418" cy="80.635" r="23.337"/>
		
			<circle opacity="0.4" fill="none" stroke="#FFFFFF" stroke-width="0.8861" stroke-miterlimit="10" enable-background="new    " cx="122.703" cy="51.592" r="19.126"/>
		<path opacity="0.4" fill="none" stroke="#FFFFFF" stroke-width="0.8861" stroke-miterlimit="10" enable-background="new    " d="
			M116.533-53.183c36.218,0,65.578,29.362,65.578,65.582c0,36.218-29.36,65.579-65.578,65.579
			c-36.223,0-65.582-29.361-65.582-65.579C50.951-23.821,80.311-53.183,116.533-53.183z"/>
	</g>
</g>
</svg>
