<svg xmlns="http://www.w3.org/2000/svg" width="29.336" height="29.34" viewBox="0 0 29.336 29.34">
  <g id="Group_25" data-name="Group 25" transform="translate(-2.717)">
    <g id="Group_24" data-name="Group 24" transform="translate(2.717 0)">
      <path id="Path_303" data-name="Path 303" d="M20.212,14.673,31.464,3.422A2,2,0,0,0,28.635.589L17.385,11.839,6.134.589A2,2,0,0,0,3.305,3.422l11.252,11.25L3.305,25.919a2,2,0,1,0,2.829,2.832L17.385,17.5l11.251,11.25a2,2,0,1,0,2.828-2.832Z" transform="translate(-2.717 0)" fill="#fff" fill-rule="evenodd"/>
    </g>
  </g>
</svg>
