<?xml version="1.0" encoding="utf-8"?>
<!-- Generator: Adobe Illustrator 16.0.4, SVG Export Plug-In . SVG Version: 6.00 Build 0)  -->
<!DOCTYPE svg PUBLIC "-//W3C//DTD SVG 1.1//EN" "http://www.w3.org/Graphics/SVG/1.1/DTD/svg11.dtd">
<svg version="1.1" id="Layer_1" xmlns="http://www.w3.org/2000/svg" xmlns:xlink="http://www.w3.org/1999/xlink" x="0px" y="0px"
	 width="127.987px" height="127.979px" viewBox="0 0 127.987 127.979" enable-background="new 0 0 127.987 127.979"
	 xml:space="preserve">
<g>
	<path fill-rule="evenodd" clip-rule="evenodd" fill="#FDCF30" d="M76.075,111.648c-26.577,6.835-53.254-8.946-60.1-35.553
		c-6.728-26.152,9.293-52.773,35.863-59.592c25.935-6.654,52.711,9.269,59.401,35.326
		C117.983,78.093,102.206,104.929,76.075,111.648z"/>
	<path fill-rule="evenodd" clip-rule="evenodd" fill="#FDCF30" d="M53.605,10.947c3.765-3.72,7.31-7.213,10.837-10.721
		c0.367-0.364,0.612-0.246,0.906,0.051c3.471,3.508,6.945,7.012,10.66,10.763C68.444,11.009,61.191,10.979,53.605,10.947z"/>
	<path fill-rule="evenodd" clip-rule="evenodd" fill="#FDCF30" d="M80.049,115.812c6.421-3.66,12.714-7.248,19.245-10.97
		c-0.443,1.64-0.818,3.029-1.197,4.418c-0.91,3.327-1.83,6.651-2.729,9.98c-0.136,0.505-0.206,0.892-0.935,0.687
		c-4.648-1.303-9.312-2.56-13.967-3.837C80.363,116.062,80.277,115.969,80.049,115.812z"/>
	<path fill-rule="evenodd" clip-rule="evenodd" fill="#FDCF30" d="M47.802,12.129c-6.542,3.73-12.833,7.316-19.136,10.911
		c-0.258-0.375-0.037-0.665,0.04-0.946c1.194-4.384,2.421-8.758,3.58-13.152C32.5,8.13,32.742,7.94,33.584,8.18
		c4.252,1.209,8.526,2.345,12.792,3.509C46.758,11.792,47.133,11.921,47.802,12.129z"/>
	<path fill-rule="evenodd" clip-rule="evenodd" fill="#FDCF30" d="M115.817,47.902c-3.688-6.455-7.278-12.74-10.878-19.042
		c0.448-0.249,0.776-0.014,1.101,0.074c4.385,1.183,8.763,2.386,13.15,3.561c0.595,0.158,0.885,0.284,0.673,1.032
		c-1.296,4.563-2.53,9.145-3.79,13.718C116.032,47.396,115.962,47.536,115.817,47.902z"/>
	<path fill-rule="evenodd" clip-rule="evenodd" fill="#FDCF30" d="M11.917,80.176c3.65,6.388,7.236,12.664,10.846,18.982
		c-0.361,0.255-0.659,0.055-0.934-0.019c-4.423-1.194-8.843-2.401-13.263-3.603c-0.515-0.139-0.968-0.18-0.737-0.993
		c1.309-4.603,2.552-9.222,3.82-13.834C11.69,80.566,11.785,80.438,11.917,80.176z"/>
	<path fill-rule="evenodd" clip-rule="evenodd" fill="#FDCF30" d="M51.873,116.984c7.418,0.031,14.685,0.064,22.217,0.096
		c-1.961,1.941-3.737,3.701-5.513,5.458c-1.698,1.68-3.412,3.348-5.09,5.05c-0.456,0.461-0.743,0.566-1.26,0.037
		c-3.313-3.387-6.664-6.739-9.998-10.107C52.128,117.414,52.062,117.272,51.873,116.984z"/>
	<path fill-rule="evenodd" clip-rule="evenodd" fill="#FDCF30" d="M10.804,51.993c-0.041,7.572-0.08,14.807-0.12,22.292
		C7.603,71.183,4.701,68.26,1.8,65.336C1.657,65.19,1.517,65.045,1.375,64.9c-1.831-1.859-1.829-1.858-0.015-3.646
		c2.801-2.763,5.599-5.527,8.4-8.289C10.015,52.715,10.283,52.477,10.804,51.993z"/>
	<path fill-rule="evenodd" clip-rule="evenodd" fill="#FDCF30" d="M117.021,53.73c3.686,3.721,7.189,7.262,10.701,10.796
		c0.271,0.271,0.394,0.498,0.077,0.812c-3.545,3.496-7.087,6.997-10.895,10.758C116.944,68.488,116.981,61.229,117.021,53.73z"/>
	<path fill-rule="evenodd" clip-rule="evenodd" fill="#FDCF30" d="M12.635,46.134c-1.265-4.818-2.503-9.525-3.736-14.235
		c-0.101-0.382-0.304-0.781,0.331-0.947c4.815-1.254,9.625-2.521,14.359-3.765C19.954,33.473,16.334,39.735,12.635,46.134z"/>
	<path fill-rule="evenodd" clip-rule="evenodd" fill="#FDCF30" d="M100.725,23.879c-6.22-3.672-12.448-7.349-18.665-11.019
		c0.224-0.07,0.584-0.198,0.954-0.296c4.278-1.126,8.56-2.249,12.838-3.375c0.545-0.143,1.036-0.408,1.266,0.498
		c1.187,4.683,2.431,9.352,3.649,14.025C100.782,23.773,100.732,23.85,100.725,23.879z"/>
	<path fill-rule="evenodd" clip-rule="evenodd" fill="#FDCF30" d="M45.658,115.209c-4.651,1.223-9.397,2.465-14.141,3.721
		c-0.47,0.124-0.74,0.084-0.881-0.46c-1.24-4.779-2.5-9.553-3.764-14.363C33.185,107.837,39.411,111.518,45.658,115.209z"/>
	<path fill-rule="evenodd" clip-rule="evenodd" fill="#FDCF30" d="M115.091,81.967c1.252,4.768,2.493,9.513,3.75,14.254
		c0.125,0.469,0.086,0.74-0.459,0.883c-4.779,1.239-9.554,2.499-14.207,3.721C107.789,94.581,111.411,88.322,115.091,81.967z"/>
</g>
</svg>
