<?xml version="1.0" encoding="utf-8"?>
<!-- Generator: Adobe Illustrator 16.0.4, SVG Export Plug-In . SVG Version: 6.00 Build 0)  -->
<!DOCTYPE svg PUBLIC "-//W3C//DTD SVG 1.1//EN" "http://www.w3.org/Graphics/SVG/1.1/DTD/svg11.dtd">
<svg version="1.1" id="Layer_1" xmlns="http://www.w3.org/2000/svg" xmlns:xlink="http://www.w3.org/1999/xlink" x="0px" y="0px"
	 width="155.494px" height="150px" viewBox="-10 0 155.494 46.762" enable-background="new -10 0 155.494 46.762"
	 xml:space="preserve">
  <polygon  fill="#E6592F" points="145.494,6.915 137.156,40.031 0.63,46.762 -10,0" transform="translate(0,-50)"/>
  <polygon fill="#cd411b" points="145.494,6.915 137.156,40.031 0.63,46.762 -10,0 " transform="translate(0,50)"/>
</svg>
